…
## Gene regulator enrichment analysis, scoring and ranking

``` r
#FET
object_LPS = regenrich_enrich(object_LPS)
object_HLF = regenrich_enrich(object_HLF)
object_LPS_HLF = regenrich_enrich(object_LPS_HLF)

#print results
print(results_enrich(object_LPS))
```

    ## Enrich object (FET method, 1082 regulators are used for enrichment, 
    ##  681 regulators pass the threshold)
    ## # A tibble: 681 × 9
    ##    ID     Description GeneRatio BgRatio    pvalue p.adjust qvalue geneID   Count
    ##    <chr>  <chr>       <chr>     <chr>       <dbl>    <dbl>  <dbl> <chr>    <int>
    ##  1 ABT1   ABT1        1342/3531 2016/16646      0        0      0 ABTB3/A…  1342
    ##  2 AHR    AHR         2378/3531 3768/16646      0        0      0 AIG1/AI…  2378
    ##  3 ALX4   ALX4        1084/3531 1479/16646      0        0      0 AMFR/AN…  1084
    ##  4 ANKRD6 ANKRD6      1483/3531 2521/16646      0        0      0 ANKRD9/…  1483
    ##  5 ARID5A ARID5A      1149/3531 1742/16646      0        0      0 ARL4C/A…  1149
    ##  6 ARNT   ARNT        2091/3531 3632/16646      0        0      0 ARPC2/A…  2091
    ##  7 ASCL2  ASCL2       856/3531  1197/16646      0        0      0 ASIC1/A…   856
    ##  8 BACH1  BACH1       1047/3531 1464/16646      0        0      0 BAZ1A-A…  1047
    ##  9 BARHL1 BARHL1      1174/3531 1534/16646      0        0      0 BAZ1A-A…  1174
    ## 10 BAZ1B  BAZ1B       1269/3531 2240/16646      0        0      0 BBS1/BB…  1269
    ## # … with 671 more rows

``` r
print(results_enrich(object_HLF))
```

    ## Enrich object (FET method, 1068 regulators are used for enrichment, 
    ##  472 regulators pass the threshold)
    ## # A tibble: 472 × 9
    ##    ID     Description GeneRatio BgRatio    pvalue p.adjust qvalue geneID   Count
    ##    <chr>  <chr>       <chr>     <chr>       <dbl>    <dbl>  <dbl> <chr>    <int>
    ##  1 ASCC2  ASCC2       611/2494  799/16646       0        0      0 ASF1B/A…   611
    ##  2 ASH2L  ASH2L       1072/2494 1658/16646      0        0      0 ASIC1/A…  1072
    ##  3 ATF6B  ATF6B       1140/2494 2542/16646      0        0      0 ATG13/A…  1140
    ##  4 BARD1  BARD1       895/2494  1577/16646      0        0      0 BASP1/B…   895
    ##  5 BRIP1  BRIP1       1375/2494 2882/16646      0        0      0 BROX/BT…  1375
    ##  6 BTG2   BTG2        568/2494  669/16646       0        0      0 BUB1/C1…   568
    ##  7 CBX5   CBX5        941/2494  1369/16646      0        0      0 CCDC150…   941
    ##  8 CDCA7L CDCA7L      810/2494  1154/16646      0        0      0 CDCA8/C…   810
    ##  9 CNTRL  CNTRL       1284/2494 3179/16646      0        0      0 COCH/CO…  1284
    ## 10 CTCF   CTCF        1275/2494 2070/16646      0        0      0 CTDSPL2…  1275
    ## # … with 462 more rows

``` r
print(results_enrich(object_LPS_HLF))
```

    ## Enrich object (FET method, 1089 regulators are used for enrichment, 
    ##  718 regulators pass the threshold)
    ## # A tibble: 718 × 9
    ##    ID     Description GeneRatio BgRatio    pvalue p.adjust qvalue geneID   Count
    ##    <chr>  <chr>       <chr>     <chr>       <dbl>    <dbl>  <dbl> <chr>    <int>
    ##  1 AHR    AHR         2035/3550 3768/16646      0        0      0 AIG1/AI…  2035
    ##  2 ANKRD6 ANKRD6      1761/3550 2521/16646      0        0      0 ANKRD9/…  1761
    ##  3 ARID5A ARID5A      1136/3550 1742/16646      0        0      0 ARL4C/A…  1136
    ##  4 ASCC1  ASCC1       615/3550  675/16646       0        0      0 ASF1B/A…   615
    ##  5 ASCL2  ASCL2       1025/3550 1197/16646      0        0      0 ASF1B/A…  1025
    ##  6 ATF2   ATF2        748/3550  932/16646       0        0      0 ATG3/AT…   748
    ##  7 BAZ1B  BAZ1B       1753/3550 2240/16646      0        0      0 BBS1/BB…  1753
    ##  8 BCLAF1 BCLAF1      1854/3550 3244/16646      0        0      0 BDH2/BE…  1854
    ##  9 BLZF1  BLZF1       1657/3550 3059/16646      0        0      0 BMAL2/B…  1657
    ## 10 BRCA2  BRCA2       2016/3550 3459/16646      0        0      0 BRIP1/B…  2016
    ## # … with 708 more rows
…
